…
traumar::seqic_indicator_1(
  data = data,
  trauma_team_activation_level = activation_level,
  trauma_team_physician_service_type = provider_type,
  level = trauma_level,
  unique_incident_id = incident_id,
  response_time = response_minutes,
  trauma_team_activation_provider = provider,
  calculate_ci = "wilson"
) |>
tidyr::pivot_longer(cols = -1,
                    names_to = "Indicator",
                    values_to = "Values"
                    )
#> # A tibble: 30 × 3
#>    data              Indicator      Values
#>    <chr>             <chr>           <dbl>
#>  1 population/sample numerator_1a   1     
#>  2 population/sample denominator_1a 1     
#>  3 population/sample seqic_1a       1     
#>  4 population/sample lower_ci_1a    0.0546
#>  5 population/sample upper_ci_1a    1     
#>  6 population/sample numerator_1b   1     
#>  7 population/sample denominator_1b 1     
#>  8 population/sample seqic_1b       1     
#>  9 population/sample lower_ci_1b    0.0546
#> 10 population/sample upper_ci_1b    1     
#> # ℹ 20 more rows
```
